{
  "info": {
    "_postman_id": "f6e79503-e324-4cee-8eb2-a1424b9570f6",
    "name": "ebooks_library",
    "schema": "https://schema.getpostman.com/json/collection/v2.1.0/collection.json"
  },
  "item": [
    {
      "name": "Users",
      "item": [
        {
          "name": "POST /v1/users",
          "request": {
            "method": "POST",
            "header": [
              {
                "key": "Content-Type",
                "value": "application/json"
              }
            ],
            "body": {
              "mode": "raw",
              "raw": "{\n  \"firstName\": \"Vinicius\",\n  \"lastName\": \"Pretto\",\n  \"email\": \"vinicius@example.com\",\n  \"birthDate\": \"2019-03-18T00:00:00.000Z\",\n  \"telephone\": \"51922222222\",\n  \"role\": \"USER\",\n  \"password\": \"vinicius\"\n}\n"
            },
            "url": {
              "raw": "{{LOCALHOST}}/v1/users",
              "host": ["{{LOCALHOST}}"],
              "path": ["v1", "users"]
            }
          },
          "response": []
        },
        {
          "name": "GET /v1/users",
          "request": {
            "method": "GET",
            "header": [],
            "url": {
              "raw": "{{LOCALHOST}}/v1/users",
              "host": ["{{LOCALHOST}}"],
              "path": ["v1", "users"]
            }
          },
          "response": []
        },
        {
          "name": "GET /v1/users/{USER_ID}",
          "request": {
            "method": "GET",
            "header": [],
            "url": {
              "raw": "{{LOCALHOST}}/v1/users/{{USER_ID}}",
              "host": ["{{LOCALHOST}}"],
              "path": ["v1", "users", "{{USER_ID}}"]
            }
          },
          "response": []
        },
        {
          "name": "PUT /v1/users/{USER_ID}",
          "request": {
            "method": "PUT",
            "header": [
              {
                "key": "Content-Type",
                "name": "Content-Type",
                "value": "application/json",
                "type": "text"
              }
            ],
            "body": {
              "mode": "raw",
              "raw": "{\n  \"firstName\": \"Joao\",\n  \"lastName\": \"da Silva\",\n  \"email\": \"vinicius@example.com\",\n  \"birthDate\": \"2019-03-18T00:00:00.000Z\",\n  \"telephone\": \"51911111111\",\n  \"role\": \"USER\",\n  \"password\": \"vinicius\"\n}\n"
            },
            "url": {
              "raw": "{{LOCALHOST}}/v1/users/{{USER_ID}}",
              "host": ["{{LOCALHOST}}"],
              "path": ["v1", "users", "{{USER_ID}}"]
            }
          },
          "response": []
        },
        {
          "name": "DELETE /v1/users/{USER_ID}",
          "request": {
            "method": "DELETE",
            "header": [],
            "body": {
              "mode": "raw",
              "raw": ""
            },
            "url": {
              "raw": "{{LOCALHOST}}/v1/users/{{USER_ID}}",
              "host": ["{{LOCALHOST}}"],
              "path": ["v1", "users", "{{USER_ID}}"]
            }
          },
          "response": []
        }
      ]
    },
    {
      "name": "Auth",
      "item": [
        {
          "name": "POST /v1/auth",
          "request": {
            "method": "POST",
            "header": [
              {
                "key": "Content-Type",
                "value": "application/json"
              }
            ],
            "body": {
              "mode": "raw",
              "raw": "{\n\t\"username\": \"vinicius@example.com\",\n\t\"password\": \"vinicius\"\n}"
            },
            "url": {
              "raw": "{{LOCALHOST}}/v1/auth",
              "host": ["{{LOCALHOST}}"],
              "path": ["v1", "auth"]
            }
          },
          "response": []
        }
      ]
    },
    {
      "name": "Books",
      "item": [
        {
          "name": "POST /v1/books",
          "request": {
            "auth": {
              "type": "bearer",
              "bearer": [
                {
                  "key": "token",
                  "value": "{{ACCESS_TOKEN}}",
                  "type": "string"
                }
              ]
            },
            "method": "POST",
            "header": [
              {
                "key": "Content-Type",
                "name": "Content-Type",
                "value": "application/json",
                "type": "text"
              }
            ],
            "body": {
              "mode": "raw",
              "raw": "{\n  \"name\": \"O melhor do Javascript\",\n  \"description\": \"A maior parte das linguagens de programação contém partes boas e ruins mas o JavaScript parece possuir mais partes ruins do que boas já que foi desenvolvido e lançado com pressa antes de ter a chance de ser refinado.\",\n  \"pictureUrl\": \"http://localhost:8080/uploads/4305eab4-e3fb-418c-b1bd-cae022f837d9.jpg\",\n  \"details\": {\n    \"author\": \"Douglas Crockford\",\n    \"language\": \"English\",\n    \"publisher\": \"Alta Books\",\n    \"year\": 2009,\n    \"pagesNumber\": 160\n  }\n}\n"
            },
            "url": {
              "raw": "{{LOCALHOST}}/v1/books",
              "host": ["{{LOCALHOST}}"],
              "path": ["v1", "books"]
            }
          },
          "response": []
        },
        {
          "name": "GET /v1/books",
          "request": {
            "auth": {
              "type": "noauth"
            },
            "method": "GET",
            "header": [],
            "url": {
              "raw": "{{LOCALHOST}}/v1/books?=",
              "host": ["{{LOCALHOST}}"],
              "path": ["v1", "books"],
              "query": [
                {
                  "key": "",
                  "value": ""
                }
              ]
            }
          },
          "response": []
        },
        {
          "name": "GET /v1/books/{{BOOK_ID}}",
          "request": {
            "auth": {
              "type": "noauth"
            },
            "method": "GET",
            "header": [],
            "url": {
              "raw": "{{LOCALHOST}}/v1/books/{{BOOK_ID}}",
              "host": ["{{LOCALHOST}}"],
              "path": ["v1", "books", "{{BOOK_ID}}"]
            }
          },
          "response": []
        },
        {
          "name": "PUT /v1/books/{{BOOK_ID}}",
          "request": {
            "auth": {
              "type": "noauth"
            },
            "method": "PUT",
            "header": [
              {
                "key": "Content-Type",
                "name": "Content-Type",
                "value": "application/json",
                "type": "text"
              }
            ],
            "body": {
              "mode": "raw",
              "raw": "{\n  \"name\": \"Javascript Book\",\n  \"description\": \"New Description\",\n  \"details\": {\n    \"author\": \"Vinicius\",\n    \"language\": \"English\",\n    \"publisher\": \"Alta Books\",\n    \"year\": 2019,\n    \"pagesNumber\": 200\n  }\n}\n"
            },
            "url": {
              "raw": "{{LOCALHOST}}/v1/books/{{BOOK_ID}}",
              "host": ["{{LOCALHOST}}"],
              "path": ["v1", "books", "{{BOOK_ID}}"]
            }
          },
          "response": []
        },
        {
          "name": "DELETE /v1/books/{{BOOK_ID}}",
          "request": {
            "auth": {
              "type": "noauth"
            },
            "method": "DELETE",
            "header": [],
            "body": {
              "mode": "raw",
              "raw": ""
            },
            "url": {
              "raw": "{{LOCALHOST}}/v1/books/{{BOOK_ID}}",
              "host": ["{{LOCALHOST}}"],
              "path": ["v1", "books", "{{BOOK_ID}}"]
            }
          },
          "response": []
        },
        {
          "name": "PUT /v1/books/{{BOOK_ID}}/borrow",
          "request": {
            "auth": {
              "type": "bearer",
              "bearer": [
                {
                  "key": "token",
                  "value": "{{ACCESS_TOKEN}}",
                  "type": "string"
                }
              ]
            },
            "method": "PUT",
            "header": [],
            "url": {
              "raw": "{{LOCALHOST}}/v1/books/{{BOOK_ID}}/borrow",
              "host": ["{{LOCALHOST}}"],
              "path": ["v1", "books", "{{BOOK_ID}}", "borrow"]
            }
          },
          "response": []
        }
      ]
    },
    {
      "name": "Upload",
      "item": [
        {
          "name": "POST /v1/upload",
          "request": {
            "method": "POST",
            "header": [
              {
                "key": "Content-Type",
                "name": "Content-Type",
                "value": "application/x-www-form-urlencoded",
                "type": "text"
              }
            ],
            "body": {
              "mode": "formdata",
              "formdata": [
                {
                  "key": "file",
                  "value": "",
                  "type": "file"
                }
              ]
            },
            "url": {
              "raw": "{{LOCALHOST}}/v1/upload",
              "host": ["{{LOCALHOST}}"],
              "path": ["v1", "upload"]
            }
          },
          "response": []
        }
      ]
    }
  ]
}
